<svg xmlns="http://www.w3.org/2000/svg" xmlns:xlink="http://www.w3.org/1999/xlink" width="93.409" height="93.409" viewBox="0 0 93.409 93.409">
  <defs>
    <radialGradient id="radial-gradient" cx="0.312" cy="0.355" r="0.664" gradientTransform="matrix(0.658, 0.753, -0.753, 0.658, 0.547, -0.206)" gradientUnits="objectBoundingBox">
      <stop offset="0" stop-color="#c3bbff"/>
      <stop offset="1" stop-color="#8676ff"/>
    </radialGradient>
    <filter id="Elipse_77" x="0" y="0" width="93.409" height="93.409" filterUnits="userSpaceOnUse">
      <feOffset dy="3" input="SourceAlpha"/>
      <feGaussianBlur stdDeviation="3" result="blur"/>
      <feFlood flood-opacity="0.161"/>
      <feComposite operator="in" in2="blur"/>
      <feComposite in="SourceGraphic"/>
    </filter>
  </defs>
  <g transform="matrix(1, 0, 0, 1, 0, 0)" filter="url(#Elipse_77)">
    <circle id="Elipse_77-2" data-name="Elipse 77" cx="32.159" cy="32.159" r="32.159" transform="translate(84.41 69.14) rotate(169)" fill="url(#radial-gradient)"/>
  </g>
</svg>
